{
  "DailyFile": [
    {
      "name": "GFI_IRS",
      "ftp": "GFI_FTP",
      "path": "/IRS/",
      "file_keyword": "GFIIIRS",
      "file_datestamp": "%d%m%y",
      "is_intraday": "No",
      "extension": "csv",
      "sub_directories": [
        "IDR",
        "INR",
        "KRW",
        "MYR",
        "PHP",
        "SGD",
        "THB",
        "TWD"
      ],
      "processing_class": "GFI_IR_RATES",
      "process": true
    },
    {
      "name": "GFI_NDIRS",
      "ftp": "GFI_FTP",
      "path": "/nd-irs/",
      "file_keyword": "GFIINDIRS",
      "file_datestamp": "%d%m%y",
      "is_intraday": "No",
      "extension": "csv",
      "sub_directories": [
        "CNY",
        "IDR",
        "KRW",
        "THB"
      ],
      "processing_class": "GFI_IR_RATES",
      "process": true
    },
    {
      "name": "GFI_NDS",
      "ftp": "GFI_FTP",
      "path": "/nds/",
      "file_keyword": "GFIIND",
      "file_datestamp": "%d%m%y",
      "is_intraday": "No",
      "extension": "csv",
      "sub_directories": [
        "CNY",
        "IDR",
        "KRW",
        "MYR",
        "PHP",
        "TWD"
      ],
      "processing_class": "GFI_IR_RATES",
      "process": true
    },
    {
      "name": "GFI_CR_CURVE",
      "ftp": "GFI_FTP",
      "path": "/curve/",
      "file_keyword": "GFICGMCUR3D",
      "file_datestamp": "%d%m%y",
      "is_intraday": "No",
      "extension": "csv",
      "sub_directories": null,
      "processing_class": "GFI_CR_CURVE",
      "process": true
    },
        {
      "name": "GFI_CR_INDEX",
      "ftp": "GFI_FTP",
      "path": "/index/",
      "file_keyword": "GFICGHIDX3D",
      "file_datestamp": "%d%m%y",
      "is_intraday": "No",
      "extension": "csv",
      "sub_directories": null,
      "processing_class": "GFI_CR_INDEX",
      "process": true
    },
    {
      "name": "GFI_IR_BONDS",
      "ftp": "GFI_FTP",
      "path": "/bonds/",
      "file_keyword": "GFICGBONDSD",
      "file_datestamp": "%d%m%y",
      "is_intraday": "No",
      "extension": "csv",
      "sub_directories": null,
      "processing_class": "GFI_IR_BONDS",
      "process": true
    },
    {
      "name": "GFI_FX_OPTION",
      "ftp": "GFI_FTP",
      "path": "/IVOLS/",
      "file_keyword": "GFIFIVOLS",
      "file_datestamp": "%d%m%y",
      "is_intraday": "No",
      "extension": "csv",
      "sub_directories": null,
      "processing_class": "GFI_FX_OPTION",
      "process": true
    },
    {
      "name": "GFI_IR_OPTION",
      "ftp": "GFI_FTP",
      "path": "/swaption_ATM/",
      "file_keyword": "ATMSWP",
      "file_datestamp": "%d%m%y",
      "is_intraday": "No",
      "extension": "csv",
      "sub_directories": [
        "AUD",
        "CNH",
        "CNY",
        "EUR",
        "GBP",
        "HKD",
        "IDR",
        "INR",
        "JPY",
        "KRW",
        "MYO",
        "MYR",
        "NZD",
        "PHP",
        "SGD",
        "THB",
        "TWD",
        "USD/TZ_LON",
        "XWD"
      ],
      "processing_class": "GFI_IR_OPTION",
      "process": true
    }
  ],
  "IntradayFile": [
    {
      "name": "FMD_IR_RATES",
      "ftp": "GFI_FTP",
      "path": "/FMD_Rates/",
      "file_keyword": "FMDRATES",
      "file_datestamp": "%Y%m%d",
      "is_intraday": "Yes",
      "extension": "gz",
      "sub_directories": null,
      "processing_class": "FMD_IR_RATES",
      "process": true
    },
    {
      "name": "FMD_FX_RATES",
      "ftp": "GFI_FTP",
      "path": "/FMD_FX_Intraday/",
      "file_keyword": "FMDFX",
      "file_datestamp": "%Y%m%d",
      "is_intraday": "Yes",
      "extension": "gz",
      "sub_directories": null,
      "processing_class": "FMD_FX_RATES",
      "process": true
    },
    {
      "name": "RPM_EMEA",
      "ftp": "GFI_FTP",
      "path": "/RPMartin_EMEA/",
      "file_keyword": "RPM_EMEA",
      "file_datestamp": "%Y%m%d",
      "is_intraday": "Yes",
      "extension": "gz",
      "sub_directories": null,
      "processing_class": "RPM_IR_RATES",
      "process": true
    },
    {
      "name": "RPM_CHINA",
      "ftp": "GFI_FTP",
      "path": "/RPMartin_China/",
      "file_keyword": "RPM_CHINA",
      "file_datestamp": "%Y%m%d",
      "is_intraday": "Yes",
      "extension": "gz",
      "sub_directories": null,
      "processing_class": "RPM_IR_RATES",
      "process": true
    }
  ],
  "TickFile": [
    {
      "name": "CCT_IR_RATES",
      "ftp": "GFI_FTP",
      "path": "/BGC_CCT_IRS/",
      "file_keyword": "CCTIRS",
      "file_datestamp": "%Y%m%d",
      "is_intraday": "Yes",
      "extension": "gz",
      "sub_directories": null,
      "processing_class": "CCT_IR_RATES",
      "process": true
    }
  ]
}